module stupidauth

go 1.20

require (
	github.com/digitalocean/go-libvirt v0.0.0-20221205150000-2939327a8519
	github.com/elliotchance/sshtunnel v1.6.1
	github.com/gofiber/fiber/v2 v2.51.0
	github.com/golang-jwt/jwt/v5 v5.1.0
	golang.org/x/crypto v0.15.0
)

require (
	github.com/MicahParks/keyfunc/v2 v2.1.0 // indirect
	github.com/cespare/xxhash/v2 v2.2.0 // indirect
	github.com/dgraph-io/ristretto v0.1.1 // indirect
	github.com/dustin/go-humanize v1.0.1 // indirect
	github.com/gogo/protobuf v1.3.2 // indirect
	github.com/golang/glog v1.2.0 // indirect
	github.com/golang/groupcache v0.0.0-20210331224755-41bb18bfe9da // indirect
	github.com/golang/protobuf v1.5.3 // indirect
	github.com/golang/snappy v0.0.4 // indirect
	github.com/google/flatbuffers v23.5.26+incompatible // indirect
	github.com/pkg/errors v0.9.1 // indirect
	go.opencensus.io v0.24.0 // indirect
	golang.org/x/net v0.18.0 // indirect
	google.golang.org/protobuf v1.31.0 // indirect
)

require (
	github.com/andybalholm/brotli v1.0.6 // indirect
	github.com/dgraph-io/badger/v4 v4.2.0
	github.com/gofiber/contrib/jwt v1.0.7
	github.com/google/uuid v1.4.0 // indirect
	github.com/klauspost/compress v1.17.3 // indirect
	github.com/mattn/go-colorable v0.1.13 // indirect
	github.com/mattn/go-isatty v0.0.20 // indirect
	github.com/mattn/go-runewidth v0.0.15 // indirect
	github.com/rivo/uniseg v0.4.4 // indirect
	github.com/valyala/bytebufferpool v1.0.0 // indirect
	github.com/valyala/fasthttp v1.51.0 // indirect
	github.com/valyala/tcplisten v1.0.0 // indirect
	golang.org/x/sys v0.14.0 // indirect
)
